Case Study: Working With Afrobarometer surveys • retroharmonize
…
And the factor representation, without weighting:

library(tidyr)  ## tidyr::pivot_longer()
harmonized_ab_waves %>%
  select ( -all_of("within_country_weighting_factor") ) %>%
  mutate_if ( is.labelled_spss_survey, as_factor) %>%
  pivot_longer ( starts_with("trust"), 
                        names_to  = "institution", 
                        values_to = "category") %>%
  mutate ( institution = gsub("^trust_", "", institution) ) %>%
  group_by ( country, year, institution, category ) %>%
  summarize ( n = n() ) 
#> `summarise()` has grouped output by 'country', 'year', 'institution'. You can override using the `.groups` argument.
#> # A tibble: 311 × 5
#> # Groups:   country, year, institution [85]
#>    country  year institution                                    category       n
#>    <chr>   <int> <chr>                                          <fct>      <int>
#>  1 Algeria  2013 key_leadership_figure_president_prime_minister little        75
#>  2 Algeria  2013 key_leadership_figure_president_prime_minister somewhat     341
#>  3 Algeria  2013 key_leadership_figure_president_prime_minister a_lot        759
#>  4 Algeria  2013 key_leadership_figure_president_prime_minister do_not_kn…    13
#>  5 Algeria  2013 key_leadership_figure_president_prime_minister inap          16
#>  6 Algeria  2013 parliament_national_assembly                   little       317
#>  7 Algeria  2013 parliament_national_assembly                   somewhat     419
#>  8 Algeria  2013 parliament_national_assembly                   a_lot         95
#>  9 Algeria  2013 parliament_national_assembly                   do_not_kn…   131
#> 10 Algeria  2013 parliament_national_assembly                   inap         242
#> # … with 301 more rows
…
